StartFontMetrics 4.1
FontName NunitoSans-Bold
FullName Nunito Sans Bold
Notice Copyright 2016 The Nunito Project Authors [contact@sansoxygen.com]
EncodingScheme FontSpecific
FamilyName Nunito Sans
Weight Bold
Version Version 2.001
Characters 221
ItalicAngle 0.0
Ascender 1011
Descender -353
UnderlineThickness 50
UnderlinePosition -75
IsFixedPitch false
FontBBox -74 -212 1301 919
StartCharMetrics 256
C 0 ; WX 0 ; N .null ; B 0 0 743 705 ;
C 1 ; WX 443 ; N .notdef ; B 82 -180 363 705 ;
C 2 ; WX 443 ; N .notdef ; B 82 -180 363 705 ;
C 3 ; WX 443 ; N .notdef ; B 82 -180 363 705 ;
C 4 ; WX 443 ; N .notdef ; B 82 -180 363 705 ;
C 5 ; WX 443 ; N .notdef ; B 82 -180 363 705 ;
C 6 ; WX 443 ; N .notdef ; B 82 -180 363 705 ;
C 7 ; WX 443 ; N .notdef ; B 82 -180 363 705 ;
C 8 ; WX 443 ; N .notdef ; B 82 -180 363 705 ;
C 9 ; WX 443 ; N .notdef ; B 82 -180 363 705 ;
C 10 ; WX 443 ; N .notdef ; B 82 -180 363 705 ;
C 11 ; WX 443 ; N .notdef ; B 82 -180 363 705 ;
C 12 ; WX 443 ; N .notdef ; B 82 -180 363 705 ;
C 13 ; WX 271 ; N CR ; B 0 0 743 705 ;
C 14 ; WX 443 ; N .notdef ; B 82 -180 363 705 ;
C 15 ; WX 443 ; N .notdef ; B 82 -180 363 705 ;
C 16 ; WX 443 ; N .notdef ; B 82 -180 363 705 ;
C 17 ; WX 443 ; N .notdef ; B 82 -180 363 705 ;
C 18 ; WX 443 ; N .notdef ; B 82 -180 363 705 ;
C 19 ; WX 443 ; N .notdef ; B 82 -180 363 705 ;
C 20 ; WX 443 ; N .notdef ; B 82 -180 363 705 ;
C 21 ; WX 443 ; N .notdef ; B 82 -180 363 705 ;
C 22 ; WX 443 ; N .notdef ; B 82 -180 363 705 ;
C 23 ; WX 443 ; N .notdef ; B 82 -180 363 705 ;
C 24 ; WX 443 ; N .notdef ; B 82 -180 363 705 ;
C 25 ; WX 443 ; N .notdef ; B 82 -180 363 705 ;
C 26 ; WX 443 ; N .notdef ; B 82 -180 363 705 ;
C 27 ; WX 443 ; N .notdef ; B 82 -180 363 705 ;
C 28 ; WX 443 ; N .notdef ; B 82 -180 363 705 ;
C 29 ; WX 443 ; N .notdef ; B 82 -180 363 705 ;
C 30 ; WX 443 ; N .notdef ; B 82 -180 363 705 ;
C 31 ; WX 443 ; N .notdef ; B 82 -180 363 705 ;
C 32 ; WX 271 ; N space ; B 0 0 743 705 ;
C 33 ; WX 248 ; N exclam ; B 47 0 201 706 ;
C 34 ; WX 451 ; N quotedbl ; B 48 414 402 705 ;
C 35 ; WX 600 ; N numbersign ; B 44 0 556 705 ;
C 36 ; WX 600 ; N dollar ; B 37 -115 566 820 ;
C 37 ; WX 945 ; N percent ; B 43 -28 902 733 ;
C 38 ; WX 681 ; N ampersand ; B 39 -8 717 712 ;
C 39 ; WX 242 ; N quotesingle ; B 48 414 193 705 ;
C 40 ; WX 352 ; N parenleft ; B 101 -195 317 721 ;
C 41 ; WX 352 ; N parenright ; B 35 -195 251 721 ;
C 42 ; WX 452 ; N asterisk ; B 31 336 421 719 ;
C 43 ; WX 600 ; N plus ; B 56 42 544 530 ;
C 44 ; WX 248 ; N comma ; B 54 -133 194 138 ;
C 45 ; WX 434 ; N hyphen ; B 68 218 366 317 ;
C 46 ; WX 248 ; N period ; B 54 0 194 138 ;
C 47 ; WX 313 ; N slash ; B -20 -73 332 761 ;
C 48 ; WX 600 ; N zero ; B 43 -9 557 712 ;
C 49 ; WX 600 ; N one ; B 95 0 549 705 ;
C 50 ; WX 601 ; N two ; B 52 0 547 714 ;
C 51 ; WX 600 ; N three ; B 42 -8 538 714 ;
C 52 ; WX 600 ; N four ; B 42 0 573 705 ;
C 53 ; WX 600 ; N five ; B 63 -8 560 705 ;
C 54 ; WX 600 ; N six ; B 44 -9 559 714 ;
C 55 ; WX 600 ; N seven ; B 55 0 546 705 ;
C 56 ; WX 600 ; N eight ; B 36 -8 564 714 ;
C 57 ; WX 600 ; N nine ; B 41 -9 556 714 ;
C 58 ; WX 248 ; N colon ; B 54 0 194 489 ;
C 59 ; WX 248 ; N semicolon ; B 54 -133 194 489 ;
C 60 ; WX 600 ; N less ; B 56 32 544 540 ;
C 61 ; WX 600 ; N equal ; B 56 142 544 430 ;
C 62 ; WX 600 ; N greater ; B 56 32 544 540 ;
C 63 ; WX 459 ; N question ; B 0 0 444 713 ;
C 64 ; WX 934 ; N at ; B 44 -156 891 711 ;
C 65 ; WX 742 ; N A ; B 0 0 743 705 ;
C 66 ; WX 683 ; N B ; B 76 0 638 705 ;
C 67 ; WX 678 ; N C ; B 54 -9 636 714 ;
C 68 ; WX 754 ; N D ; B 76 0 700 705 ;
C 69 ; WX 589 ; N E ; B 76 0 548 705 ;
C 70 ; WX 566 ; N F ; B 76 0 538 705 ;
C 71 ; WX 733 ; N G ; B 54 -9 664 714 ;
C 72 ; WX 766 ; N H ; B 76 0 690 705 ;
C 73 ; WX 281 ; N I ; B 76 0 205 705 ;
C 74 ; WX 358 ; N J ; B -6 -9 282 705 ;
C 75 ; WX 660 ; N K ; B 76 0 689 705 ;
C 76 ; WX 555 ; N L ; B 76 0 534 705 ;
C 77 ; WX 841 ; N M ; B 78 0 764 705 ;
C 78 ; WX 747 ; N N ; B 76 0 671 705 ;
C 79 ; WX 779 ; N O ; B 54 -9 725 714 ;
C 80 ; WX 660 ; N P ; B 76 0 623 705 ;
C 81 ; WX 779 ; N Q ; B 54 -212 725 714 ;
C 82 ; WX 695 ; N R ; B 76 0 667 705 ;
C 83 ; WX 638 ; N S ; B 43 -9 595 714 ;
C 84 ; WX 613 ; N T ; B 12 0 601 705 ;
C 85 ; WX 733 ; N U ; B 72 -9 661 705 ;
C 86 ; WX 714 ; N V ; B -9 0 724 705 ;
C 87 ; WX 1110 ; N W ; B 24 0 1086 705 ;
C 88 ; WX 664 ; N X ; B -10 0 673 705 ;
C 89 ; WX 623 ; N Y ; B -38 0 662 705 ;
C 90 ; WX 602 ; N Z ; B 48 0 567 705 ;
C 91 ; WX 351 ; N bracketleft ; B 106 -180 339 705 ;
C 92 ; WX 312 ; N backslash ; B -20 -73 332 761 ;
C 93 ; WX 351 ; N bracketright ; B 12 -180 245 705 ;
C 94 ; WX 600 ; N asciicircum ; B 46 142 554 630 ;
C 95 ; WX 500 ; N underscore ; B 12 -75 488 0 ;
C 96 ; WX 300 ; N grave ; B -36 553 190 757 ;
C 97 ; WX 540 ; N a ; B 46 -8 478 501 ;
C 98 ; WX 601 ; N b ; B 65 -8 563 705 ;
C 99 ; WX 488 ; N c ; B 38 -8 474 501 ;
C 100 ; WX 601 ; N d ; B 38 -8 537 705 ;
C 101 ; WX 531 ; N e ; B 38 -8 494 501 ;
C 102 ; WX 358 ; N f ; B 5 0 380 709 ;
C 103 ; WX 605 ; N g ; B 38 -188 541 501 ;
C 104 ; WX 585 ; N h ; B 65 0 523 705 ;
C 105 ; WX 254 ; N i ; B 58 0 196 716 ;
C 106 ; WX 254 ; N j ; B -74 -185 195 716 ;
C 107 ; WX 536 ; N k ; B 65 0 555 705 ;
C 108 ; WX 254 ; N l ; B 65 0 190 705 ;
C 109 ; WX 873 ; N m ; B 65 0 811 501 ;
C 110 ; WX 585 ; N n ; B 65 0 523 501 ;
C 111 ; WX 575 ; N o ; B 38 -8 537 501 ;
C 112 ; WX 601 ; N p ; B 65 -180 563 501 ;
C 113 ; WX 601 ; N q ; B 38 -180 537 501 ;
C 114 ; WX 383 ; N r ; B 65 0 387 502 ;
C 115 ; WX 485 ; N s ; B 33 -8 449 501 ;
C 116 ; WX 369 ; N t ; B 5 -7 361 635 ;
C 117 ; WX 579 ; N u ; B 62 -8 514 489 ;
C 118 ; WX 526 ; N v ; B -4 0 531 488 ;
C 119 ; WX 856 ; N w ; B 8 0 847 489 ;
C 120 ; WX 532 ; N x ; B -11 0 544 489 ;
C 121 ; WX 526 ; N y ; B -4 -180 531 488 ;
C 122 ; WX 510 ; N z ; B 47 0 473 489 ;
C 123 ; WX 388 ; N braceleft ; B 43 -180 376 705 ;
C 124 ; WX 279 ; N bar ; B 81 -180 198 705 ;
C 125 ; WX 388 ; N braceright ; B 12 -180 345 705 ;
C 126 ; WX 600 ; N asciitilde ; B 56 208 544 364 ;
C 127 ; WX 443 ; N .notdef ; B 82 -180 363 705 ;
C 128 ; WX 600 ; N Euro ; B 19 -9 584 714 ;
C 129 ; WX 443 ; N .notdef ; B 82 -180 363 705 ;
C 130 ; WX 248 ; N quotesinglbase ; B 54 -133 194 138 ;
C 131 ; WX 600 ; N florin ; B 32 -185 567 710 ;
C 132 ; WX 440 ; N quotedblbase ; B 54 -133 386 138 ;
C 133 ; WX 745 ; N ellipsis ; B 54 0 691 138 ;
C 134 ; WX 345 ; N dagger ; B 20 165 325 713 ;
C 135 ; WX 345 ; N daggerdbl ; B 20 164 325 713 ;
C 136 ; WX 300 ; N circumflex ; B -14 553 314 757 ;
C 137 ; WX 1344 ; N perthousand ; B 43 -28 1301 733 ;
C 138 ; WX 638 ; N Scaron ; B 43 -9 595 919 ;
C 139 ; WX 287 ; N guilsinglleft ; B 61 74 245 457 ;
C 140 ; WX 1045 ; N OE ; B 54 0 1003 705 ;
C 141 ; WX 443 ; N .notdef ; B 82 -180 363 705 ;
C 142 ; WX 602 ; N Zcaron ; B 48 0 567 919 ;
C 143 ; WX 443 ; N .notdef ; B 82 -180 363 705 ;
C 144 ; WX 440 ; N quotedblbase ; B 54 -133 386 138 ;
C 145 ; WX 248 ; N quoteleft ; B 54 441 194 712 ;
C 146 ; WX 248 ; N quoteright ; B 54 434 194 705 ;
C 147 ; WX 440 ; N quotedblleft ; B 54 441 386 712 ;
C 148 ; WX 440 ; N quotedblright ; B 54 434 386 705 ;
C 149 ; WX 524 ; N bullet ; B 81 88 443 443 ;
C 150 ; WX 500 ; N endash ; B 0 230 500 304 ;
C 151 ; WX 1000 ; N emdash ; B 0 230 1000 304 ;
C 152 ; WX 300 ; N tilde ; B -19 588 319 725 ;
C 153 ; WX 934 ; N trademark ; B 12 284 862 705 ;
C 154 ; WX 485 ; N scaron ; B 33 -8 449 757 ;
C 155 ; WX 283 ; N guilsinglright ; B 42 74 225 457 ;
C 156 ; WX 900 ; N oe ; B 38 -8 864 501 ;
C 157 ; WX 443 ; N .notdef ; B 82 -180 363 705 ;
C 158 ; WX 510 ; N zcaron ; B 47 0 473 757 ;
C 159 ; WX 623 ; N Ydieresis ; B -38 0 662 900 ;
C 160 ; WX 271 ; N uni00A0 ; B 50 -115 568 820 ;
C 161 ; WX 248 ; N exclamdown ; B 47 -180 201 489 ;
C 162 ; WX 600 ; N cent ; B 82 -115 518 608 ;
C 163 ; WX 600 ; N sterling ; B 44 0 574 714 ;
C 164 ; WX 600 ; N currency ; B 51 -9 548 501 ;
C 165 ; WX 600 ; N yen ; B -16 0 616 705 ;
C 166 ; WX 279 ; N brokenbar ; B 81 -180 198 705 ;
C 167 ; WX 564 ; N section ; B 35 -187 529 712 ;
C 168 ; WX 300 ; N dieresis ; B -2 598 302 712 ;
C 169 ; WX 815 ; N copyright ; B 50 -5 765 710 ;
C 170 ; WX 336 ; N ordfeminine ; B 21 403 307 710 ;
C 171 ; WX 494 ; N guillemotleft ; B 61 74 452 457 ;
C 172 ; WX 600 ; N logicalnot ; B 56 140 544 431 ;
C 173 ; WX 434 ; N uni00AD ; B 68 218 366 317 ;
C 174 ; WX 815 ; N registered ; B 50 -5 765 710 ;
C 175 ; WX 300 ; N macron ; B -4 614 304 695 ;
C 176 ; WX 367 ; N degree ; B 33 413 334 710 ;
C 177 ; WX 600 ; N plusminus ; B 56 0 544 530 ;
C 178 ; WX 380 ; N uni00B2 ; B 34 282 344 709 ;
C 179 ; WX 380 ; N uni00B3 ; B 29 278 344 709 ;
C 180 ; WX 300 ; N acute ; B 110 553 336 757 ;
C 181 ; WX 579 ; N uni00B5 ; B 62 -180 514 489 ;
C 182 ; WX 612 ; N paragraph ; B 36 -180 536 705 ;
C 183 ; WX 248 ; N periodcentered ; B 54 198 194 336 ;
C 184 ; WX 300 ; N cedilla ; B 50 -195 269 20 ;
C 185 ; WX 380 ; N uni00B9 ; B 52 282 349 705 ;
C 186 ; WX 362 ; N ordmasculine ; B 18 403 344 710 ;
C 187 ; WX 489 ; N guillemotright ; B 42 74 432 457 ;
C 188 ; WX 950 ; N onequarter ; B 52 -28 937 733 ;
C 189 ; WX 950 ; N onehalf ; B 52 -28 914 733 ;
C 190 ; WX 950 ; N threequarters ; B 29 -28 937 733 ;
C 191 ; WX 459 ; N questiondown ; B 15 -188 459 489 ;
C 192 ; WX 742 ; N Agrave ; B 0 0 743 919 ;
C 193 ; WX 742 ; N Aacute ; B 0 0 743 919 ;
C 194 ; WX 742 ; N Acircumflex ; B 0 0 743 919 ;
C 195 ; WX 742 ; N Atilde ; B 0 0 743 911 ;
C 196 ; WX 742 ; N Adieresis ; B 0 0 743 900 ;
C 197 ; WX 742 ; N Aring ; B 0 0 743 880 ;
C 198 ; WX 997 ; N AE ; B -20 0 956 705 ;
C 199 ; WX 678 ; N Ccedilla ; B 54 -195 636 714 ;
C 200 ; WX 589 ; N Egrave ; B 76 0 548 919 ;
C 201 ; WX 589 ; N Eacute ; B 76 0 548 919 ;
C 202 ; WX 589 ; N Ecircumflex ; B 76 0 548 919 ;
C 203 ; WX 589 ; N Edieresis ; B 76 0 548 900 ;
C 204 ; WX 281 ; N Igrave ; B -43 0 205 919 ;
C 205 ; WX 281 ; N Iacute ; B 76 0 323 919 ;
C 206 ; WX 281 ; N Icircumflex ; B -24 0 304 919 ;
C 207 ; WX 281 ; N Idieresis ; B -12 0 292 900 ;
C 208 ; WX 778 ; N Eth ; B 12 0 724 705 ;
C 209 ; WX 747 ; N Ntilde ; B 76 0 671 911 ;
C 210 ; WX 779 ; N Ograve ; B 54 -9 725 919 ;
C 211 ; WX 779 ; N Oacute ; B 54 -9 725 919 ;
C 212 ; WX 779 ; N Ocircumflex ; B 54 -9 725 919 ;
C 213 ; WX 779 ; N Otilde ; B 54 -9 725 911 ;
C 214 ; WX 779 ; N Odieresis ; B 54 -9 725 900 ;
C 215 ; WX 600 ; N multiply ; B 66 52 534 520 ;
C 216 ; WX 779 ; N Oslash ; B 54 -60 725 765 ;
C 217 ; WX 733 ; N Ugrave ; B 72 -9 661 919 ;
C 218 ; WX 733 ; N Uacute ; B 72 -9 661 919 ;
C 219 ; WX 733 ; N Ucircumflex ; B 72 -9 661 919 ;
C 220 ; WX 733 ; N Udieresis ; B 72 -9 661 900 ;
C 221 ; WX 623 ; N Yacute ; B -38 0 662 919 ;
C 222 ; WX 660 ; N Thorn ; B 76 0 623 705 ;
C 223 ; WX 655 ; N germandbls ; B 65 -8 631 712 ;
C 224 ; WX 540 ; N agrave ; B 46 -8 478 757 ;
C 225 ; WX 540 ; N aacute ; B 46 -8 478 757 ;
C 226 ; WX 540 ; N acircumflex ; B 46 -8 478 757 ;
C 227 ; WX 540 ; N atilde ; B 46 -8 478 725 ;
C 228 ; WX 540 ; N adieresis ; B 46 -8 478 712 ;
C 229 ; WX 540 ; N aring ; B 46 -8 478 760 ;
C 230 ; WX 843 ; N ae ; B 46 -8 806 501 ;
C 231 ; WX 488 ; N ccedilla ; B 38 -195 474 501 ;
C 232 ; WX 531 ; N egrave ; B 38 -8 494 757 ;
C 233 ; WX 531 ; N eacute ; B 38 -8 494 757 ;
C 234 ; WX 531 ; N ecircumflex ; B 38 -8 494 757 ;
C 235 ; WX 531 ; N edieresis ; B 38 -8 494 712 ;
C 236 ; WX 254 ; N igrave ; B -59 0 190 757 ;
C 237 ; WX 254 ; N iacute ; B 65 0 313 757 ;
C 238 ; WX 254 ; N icircumflex ; B -37 0 291 757 ;
C 239 ; WX 254 ; N idieresis ; B -25 0 279 712 ;
C 240 ; WX 581 ; N eth ; B 38 -8 543 714 ;
C 241 ; WX 585 ; N ntilde ; B 65 0 523 725 ;
C 242 ; WX 575 ; N ograve ; B 38 -8 537 757 ;
C 243 ; WX 575 ; N oacute ; B 38 -8 537 757 ;
C 244 ; WX 575 ; N ocircumflex ; B 38 -8 537 757 ;
C 245 ; WX 575 ; N otilde ; B 38 -8 537 725 ;
C 246 ; WX 575 ; N odieresis ; B 38 -8 537 712 ;
C 247 ; WX 600 ; N divide ; B 56 34 544 534 ;
C 248 ; WX 575 ; N oslash ; B 38 -56 537 550 ;
C 249 ; WX 579 ; N ugrave ; B 62 -8 514 757 ;
C 250 ; WX 579 ; N uacute ; B 62 -8 514 757 ;
C 251 ; WX 579 ; N ucircumflex ; B 62 -8 514 757 ;
C 252 ; WX 579 ; N udieresis ; B 62 -8 514 712 ;
C 253 ; WX 526 ; N yacute ; B -4 -180 531 757 ;
C 254 ; WX 601 ; N thorn ; B 65 -180 563 705 ;
C 255 ; WX 526 ; N ydieresis ; B -4 -180 531 712 ;
EndCharMetrics
EndFontMetrics
